…
Assessing linear relationship between parameter and environmental
variables and NPP.

``` r
lm(npp ~ ., data = ens_params_env) %>% 
  broom::tidy() %>% 
  mutate_if(is.numeric, signif, 3)
```

    ## # A tibble: 77 x 5
    ##    term        estimate std.error statistic p.value
    ##    <chr>          <dbl>     <dbl>     <dbl>   <dbl>
    ##  1 (Intercept) 1900       1780       1.07     0.286
    ##  2 ensemble10     0.246      7.5     0.0329   0.974
    ##  3 ensemble11     2.26       7.21    0.314    0.754
    ##  4 ensemble12    -1.53       6.1    -0.25     0.803
    ##  5 ensemble13     2.28       7.12    0.321    0.749
    ##  6 ensemble14     3.41       7.25    0.47     0.638
    ##  7 ensemble15     2.97       6.98    0.426    0.671
    ##  8 ensemble16     4.79       6.33    0.756    0.45 
    ##  9 ensemble17     4.29       6.24    0.687    0.493
    ## 10 ensemble18    -4.06       6.67   -0.609    0.543
    ## # … with 67 more rows
…
Generate training data. Choosing to hold out no testing data from this
dataset because it is limited in size, and only including data with a
large number of ensembles. Also only including features that had
statistically significant impact in ANOVA and the parameters relevant to
the three modified plants.

``` r
set.seed(1234)
ens_params_env %>% group_by(site, year) %>% summarise(n = n())
```

    ## `summarise()` regrouping output by 'site' (override with `.groups` argument)

    ## # A tibble: 21 x 3
    ## # Groups:   site [5]
    ##    site   year     n
    ##    <chr> <dbl> <int>
    ##  1 LW     2019    50
    ##  2 NC     2009    25
    ##  3 NC     2010    19
    ##  4 NC     2011    17
    ##  5 NC     2012    13
    ##  6 NC     2013    12
    ##  7 NC     2014    11
    ##  8 NC     2015    10
    ##  9 SR     2019    44
    ## 10 WB     2019    50
    ## # … with 11 more rows
…
``` r
load('/data/tests/ed2_SR_recent_sa/sensitivity.samples.NOENSEMBLEID.Rdata')

params_wt <- data.frame(sa.samples$SetariaWT) %>% 
  filter(row.names(.) == "50") %>% 
  janitor::clean_names()
  
inputs_wt <- cbind(pred_mets_mean_summer, params_wt)
inputs_wt
```

    ## # A tibble: 10,605 x 24
    ## # Groups:   site [2,121]
    ##     site  year mean_temp mean_vpd mean_precip mean_srad mean_swe mean_dayl mort2
    ##    <dbl> <dbl>     <dbl>    <dbl>       <dbl>     <dbl>    <dbl>     <dbl> <dbl>
    ##  1     1  2010      23.4    1229         2.00      450.        0     0.570  20.0
    ##  2     1  2011      25.6     865.        1.60      451.        0     0.570  20.0
    ##  3     1  2012      24.1     810.        1.52      462.        0     0.569  20.0
    ##  4     1  2013      23.3    1186         2.65      445.        0     0.570  20.0
    ##  5     1  2014      22.8    1482         2.68      419.        0     0.570  20.0
    ##  6     2  2010      23.6     936.        2.00      460.        0     0.571  20.0
    ##  7     2  2011      25.8     843.        1.43      454.        0     0.571  20.0
    ##  8     2  2012      24.1     688.        1.01      475.        0     0.570  20.0
    ##  9     2  2013      23.6    1034         2.21      460.        0     0.571  20.0
    ## 10     2  2014      23.0    1166         1.25      449.        0     0.571  20.0
    ## # … with 10,595 more rows, and 15 more variables: growth_resp_factor <dbl>,
    ## #   leaf_turnover_rate <dbl>, leaf_width <dbl>, nonlocal_dispersal <dbl>,
    ## #   fineroot2leaf <dbl>, root_turnover_rate <dbl>, seedling_mortality <dbl>,
    ## #   stomatal_slope <dbl>, quantum_efficiency <dbl>, vcmax <dbl>, r_fract <dbl>,
    ## #   cuticular_cond <dbl>, root_respiration_rate <dbl>, vm_low_temp <dbl>,
    ## #   sla <dbl>
…
