…
``` r
t <- OpBioGro_weather %>% 
  mutate(date = new.date$date) %>% 
  dplyr::select(solarR:date) %>% 
  tidyr::pivot_longer(cols = solarR:precip)
t
```

    ## # A tibble: 43,800 x 3
    ##    date                name            value
    ##    <dttm>              <chr>           <dbl>
    ##  1 2000-01-01 00:00:00 solarR       0       
    ##  2 2000-01-01 00:00:00 DailyTemp.C 30.7     
    ##  3 2000-01-01 00:00:00 RH           0.555   
    ##  4 2000-01-01 00:00:00 WindSpeed    0       
    ##  5 2000-01-01 00:00:00 precip       0.000463
    ##  6 2000-01-01 01:00:00 solarR       0       
    ##  7 2000-01-01 01:00:00 DailyTemp.C 30.7     
    ##  8 2000-01-01 01:00:00 RH           0.555   
    ##  9 2000-01-01 01:00:00 WindSpeed    0       
    ## 10 2000-01-01 01:00:00 precip       0       
    ## # … with 43,790 more rows
…
